asmd/asmd_multiplier.vcd
$date
	Thu Sep 19 16:02:14 2024
$end
$version
	Icarus Verilog
$end
$timescale
	1s
$end
$scope module asmd_multiplier_tb $end
$var wire 1 ! ready $end
$var wire 8 " product [7:0] $end
$var reg 1 # clk $end
$var reg 1 $ reset $end
$var reg 1 % start $end
$var reg 4 & word0 [3:0] $end
$var reg 4 ' word1 [3:0] $end
$scope module asmd_multiplier_inst $end
$var wire 1 # clk $end
$var wire 1 $ reset $end
$var wire 1 % start $end
$var wire 4 ( word0 [3:0] $end
$var wire 4 ) word1 [3:0] $end
$var wire 1 * shift $end
$var wire 1 ! ready $end
$var wire 8 + product [7:0] $end
$var wire 1 , m_is_1 $end
$var wire 1 - m0 $end
$var wire 1 . load_words $end
$var wire 1 / flush $end
$var wire 1 0 empty $end
$var wire 1 1 add_shift $end
$scope module control_module0 $end
$var wire 1 # clk $end
$var wire 1 $ reset $end
$var wire 1 % start $end
$var wire 1 , m_is_1 $end
$var wire 1 - m0 $end
$var wire 1 0 empty $end
$var reg 1 1 addshift $end
$var reg 1 / flush $end
$var reg 1 . load_words $end
$var reg 1 2 next_state $end
$var reg 1 ! ready $end
$var reg 1 * shift $end
$var reg 1 3 state $end
$upscope $end
$scope module datapath_module0 $end
$var wire 1 1 addshift $end
$var wire 1 # clk $end
$var wire 1 0 empty $end
$var wire 1 / flush $end
$var wire 1 . load_words $end
$var wire 1 $ reset $end
$var wire 1 * shift $end
$var wire 4 4 word0 [3:0] $end
$var wire 4 5 word1 [3:0] $end
$var wire 1 , m_is_1 $end
$var wire 1 - m0 $end
$var reg 8 6 multiplicand [7:0] $end
$var reg 4 7 multiplier [3:0] $end
$var reg 8 8 product [7:0] $end
$upscope $end
$upscope $end
$upscope $end
$enddefinitions $end
#0
$dumpvars
b0 8
b0 7
b0 6
b0 5
b0 4
03
02
01
10
0/
0.
0-
0,
b0 +
0*
b0 )
b0 (
b0 '
b0 &
0%
1$
0#
b0 "
0!
$end
#5
1#
#10
0#
#15
1#
#20
0#
#25
1#
#30
0#
#35
1#
#40
0#
#45
1#
#50
0#
#55
1#
#60
0#
#65
1#
#70
0#
#75
1#
#80
0#
#85
1#
#90
0#
#95
1#
#100
12
1.
1!
00
0#
1%
b10 '
b10 )
b10 5
b11 &
b11 (
b11 4
0$
#105
1*
0!
0.
12
b10 7
b11 6
13
1#
#110
0#
#115
1-
11
0*
02
1,
b1 7
b110 6
1#
#120
0#
#125
0-
12
1.
1!
01
0,
b0 7
b1100 6
b110 "
b110 +
b110 8
03
1#
#130
0#
#135
1*
0!
0.
12
13
b10 7
b11 6
1#
#140
0#
#145
1-
11
0*
02
1,
b1 7
b110 6
1#
#150
0#
#155
0-
12
1.
1!
01
03
0,
b0 7
b1100 6
b1100 "
b1100 +
b1100 8
1#
#160
0#
#165
1!
0.
02
1#
0%
